id,name,faction,desc,script,icon,order
open_market,"Open
Market",,"The open market. Only legal goods may be traded here, and transactions may be subject to tariffs.

Market stability increases prices on this and all other submarkets.",data.scripts.campaign.submarkets.DS_OpenMarketPlugin,,0
black_market,"Black
Market",pirates,"The black market. Anything and everything can be bought or sold, and there are no tariffs.

However, transactions may catch the eye of authorities, and large-volume trade may empower local crime syndicates, undermine legitimate authority, and destabilize the overall market. Selling (but not buying) commodities that are illegal on the open market has a much greater impact on stability.

Black market transactions are also less likely to be found out about by the enemies of the faction controlling the market.

More goods are available for sale if the market's stability is low.

Trading with the transponder off and engaging in legitimate trade as a ""cover"" both reduce the probability of attracting the attention of authorities.",data.scripts.campaign.submarkets.DS_BlackMarketPlugin,graphics/factions/black_market.png,999
generic_military,,,"Trade with $theFaction military base.

Weapons and other military hardware can be bought and sold here even if they're illegal on the open market. A commission and better standing with $theFaction results in higher-grade hardware being available.

Will buy locally illegal goods as part of a no-questions-asked buyback program.",data.scripts.campaign.submarkets.DS_MilitarySubmarketPlugin,,100
tem_templarmarket,"Templar
Requisitions",,"The Templar requisitions center, perhaps the most desired and exclusive market in the sector.",data.scripts.campaign.submarkets.DS_TEM_MarketPlugin,,0
exipirated_avesta_market,"Avesta
Market",,"The Avestan black market. Anything and everything can be bought or sold, including ExigencyCorp ships, and there are no tariffs.",data.scripts.campaign.submarkets.DS_ExipiratedAvestaSubmarketPlugin,graphics/exigency/icons/intel/exipirated_intelligence.png,999
ii_militaryindustrial,,,"Trade with $theFaction military-industrial complex.

Weapons and other military hardware can be bought and sold here even if they're illegal on the open market. A commission and better standing with $theFaction results in higher-grade hardware being available.

Will buy locally illegal goods as part of a no-questions-asked buyback program.",data.scripts.campaign.submarkets.DS_II_MilitaryIndustrialSubmarketPlugin,,100
ii_ebay,"The Grand
Starship Market",,"Trade at the Imperium-sponsored ship/weapon market.

Civilian and military hardware can be bought and sold here, as part of a managed resale venue. A better standing with $theFaction results in higher-grade hardware being available for purchase.

Commodities are not available for sale here, but the tariff is reduced.",data.scripts.campaign.submarkets.DS_II_EBaySubmarketPlugin,graphics/imperium/factions/ii_ebay.png,100
uw_cabalmarket,"Cabal
Exchange",cabal,"A secret market operated by the Starlight Cabal. The occasional captain will reverently whisper of it, as if the place has mystical properties. Rumor has it that certain esteemed individuals can waive the entry fee...

The exchange stocks a wide variety of (often difficult-to-acquire) hardware and goods, both legal and illegal.  There are no tariffs.",data.scripts.campaign.submarkets.DS_UW_CabalMarketPlugin,,800
