{
    "WeaponTiers": {
        "0": 0.5,
        "1": 1.5,
        "2": 1.25,
        "3": 1
    },
    "TechWeightsShip": {
        "LOW_TECH": 1,
        "MIDLINE": 1,
        "HIGH_TECH": 1,
        "PIRATE_TECH": 1,
        "CIVILIAN_TECH": 2,
        "BLACKROCK": 1,
        "BRDY_MAGIC": 1,
        "CITADEL": 1,
        "EXIGENCY": 1,
        "AHRIMAN": 1,
        "IMPERIUM": 1,
        "TEMPLAR": 1,
        "SHADOW": 1,
        "MAYORATE": 1,
        "JUNK_PIRATE": 1,
        "PACK": 1,
        "ASP": 1,
        "SCY": 1,
        "TIANDONG": 1,
        "DIABLE": 1
    },
    "TechWeightsWeapon": {
        "VANILLA_TECH": 1,
        "BLACKROCK": 1,
        "CITADEL": 1,
        "EXIGENCY": 1,
        "IMPERIUM": 1,
        "TEMPLAR": 1,
        "SHADOW": 1,
        "MAYORATE": 1,
        "JUNK_PIRATE": 1,
        "SCY": 1,
        "TIANDONG": 1,
        "DIABLE": 1
    },
    "FactionID": "blackrock_driveyards"
}