{
    "WeaponTiers": {
        "0": 0.75,
        "1": 1,
        "2": 1,
        "3": 0.5
    },
    "TechWeightsShip": {
        "LOW_TECH": 1,
        "MIDLINE": 1,
        "HIGH_TECH": 1,
        "PIRATE_TECH": 1,
        "CIVILIAN_TECH": 0.6,
        "BLACKROCK": 1,
        "BRDY_MAGIC": 1,
        "CITADEL": 1,
        "EXIGENCY": 1,
        "AHRIMAN": 1,
        "IMPERIUM": 1,
        "TEMPLAR": 1,
        "SHADOW": 1,
        "MAYORATE": 1,
        "JUNK_PIRATE": 1,
        "PACK": 1,
        "ASP": 1,
        "SCY": 1,
        "TIANDONG": 1,
        "DIABLE": 1
    },
    "TechWeightsWeapon": {
        "VANILLA_TECH": 0.6,
        "BLACKROCK": 0.5,
        "CITADEL": 0.5,
        "EXIGENCY": 0.5,
        "IMPERIUM": 0.5,
        "TEMPLAR": 0.5,
        "SHADOW": 0.5,
        "MAYORATE": 0.5,
        "JUNK_PIRATE": 0.5,
        "SCY": 0.5,
        "TIANDONG": 0.5,
        "DIABLE": 3
    },
    "FactionID": "diableavionics"
}