{
	"WeaponTiers": {
		"0": 0.25,
		"1": 2,
		"2": 1,
		"3": 0.1
	},
    "TechWeightsShip": {
        "LOW_TECH": 2,
        "MIDLINE": 1,
        "HIGH_TECH": 0.75,
        "PIRATE_TECH": 1,
        "CIVILIAN_TECH": 0.85,
        "BLACKROCK": 1,
        "BRDY_MAGIC": 1,
        "CITADEL": 1,
        "EXIGENCY": 1,
        "AHRIMAN": 1,
        "IMPERIUM": 0.5,
        "TEMPLAR": 1,
        "SHADOW": 1,
        "MAYORATE": 1,
        "JUNK_PIRATE": 1,
        "PACK": 1,
        "ASP": 1,
        "SCY": 1,
        "TIANDONG": 1,
        "DIABLE": 1
    },
    "TechWeightsWeapon": {
        "VANILLA_TECH": 1.35,
        "BLACKROCK": 1,
        "CITADEL": 1,
        "EXIGENCY": 1,
        "IMPERIUM": 1,
        "TEMPLAR": 1,
        "SHADOW": 1,
        "MAYORATE": 1,
        "JUNK_PIRATE": 1,
        "SCY": 1,
        "TIANDONG": 1,
        "DIABLE": 1
    },
	"FactionID": "sindrian_diktat"
}